…
###### Checking data

A quick look at the data before analysis. Let’s see what the table looks
like and what the variable type is.

``` r
# check the data
print(tag_by_year)
```

    ## # A tibble: 40,518 x 4
    ##     year tag           number year_total
    ##    <dbl> <chr>          <dbl>      <dbl>
    ##  1  2008 .htaccess         54      58390
    ##  2  2008 .net            5910      58390
    ##  3  2008 .net-2.0         289      58390
    ##  4  2008 .net-3.5         319      58390
    ##  5  2008 .net-4.0           6      58390
    ##  6  2008 .net-assembly      3      58390
    ##  7  2008 .net-core          1      58390
    ##  8  2008 2d                42      58390
    ##  9  2008 32-bit            19      58390
    ## 10  2008 32bit-64bit        4      58390
    ## # ... with 40,508 more rows
…
    ## [1] 0

``` r
# unique values in columns tag, year_total
unique_tags <- tag_by_year %>% 
  select(tag) %>% 
  unique()

unique_tags
```

    ## # A tibble: 4,080 x 1
    ##    tag          
    ##    <chr>        
    ##  1 .htaccess    
    ##  2 .net         
    ##  3 .net-2.0     
    ##  4 .net-3.5     
    ##  5 .net-4.0     
    ##  6 .net-assembly
    ##  7 .net-core    
    ##  8 2d           
    ##  9 32-bit       
    ## 10 32bit-64bit  
    ## # ... with 4,070 more rows
…
Let’s see how the percentage of searches for R and Python breaks down
compared to all languages.

###### First, add a column with percentages

``` r
# Add percentage column
tag_by_year_percentage <- tag_by_year %>%
  mutate(fraction = (number/year_total)*100)

# Print the new table
print(tag_by_year_percentage)
```

    ## # A tibble: 40,518 x 5
    ##    year       tag           number year_total fraction
    ##    <date>     <chr>          <dbl>      <dbl>    <dbl>
    ##  1 2008-01-01 .htaccess         54      58390  0.0925 
    ##  2 2008-01-01 .net            5910      58390 10.1    
    ##  3 2008-01-01 .net-2.0         289      58390  0.495  
    ##  4 2008-01-01 .net-3.5         319      58390  0.546  
    ##  5 2008-01-01 .net-4.0           6      58390  0.0103 
    ##  6 2008-01-01 .net-assembly      3      58390  0.00514
    ##  7 2008-01-01 .net-core          1      58390  0.00171
    ##  8 2008-01-01 2d                42      58390  0.0719 
    ##  9 2008-01-01 32-bit            19      58390  0.0325 
    ## 10 2008-01-01 32bit-64bit        4      58390  0.00685
    ## # ... with 40,508 more rows

###### Then, filter out R and Python

``` r
# Filter for R and python tags
r_python_over_time <- tag_by_year_percentage %>%
  filter(tag %in% c("r", "python"))

# Print the new table
print(r_python_over_time)
```

    ## # A tibble: 22 x 5
    ##    year       tag    number year_total fraction
    ##    <date>     <chr>   <dbl>      <dbl>    <dbl>
    ##  1 2008-01-01 python   2080      58390   3.56  
    ##  2 2008-01-01 r           8      58390   0.0137
    ##  3 2009-01-01 python  12906     343868   3.75  
    ##  4 2009-01-01 r         524     343868   0.152 
    ##  5 2010-01-01 python  27098     694391   3.90  
    ##  6 2010-01-01 r        2270     694391   0.327 
    ##  7 2011-01-01 python  42313    1200551   3.52  
    ##  8 2011-01-01 r        5845    1200551   0.487 
    ##  9 2012-01-01 python  64456    1645404   3.92  
    ## 10 2012-01-01 r       12221    1645404   0.743 
    ## # ... with 12 more rows
…
#### **Let’s find out how often R/Python libraries were searched**

``` r
# A vector of selected tags 
selected_tags <- c('dplyr', 'ggplot2', "tidyverse", 'matplotlib', 'pandas', 'numpy')

# Filter for those tags
selected_tags_over_time <- tag_by_year_percentage %>%
  filter(tag %in% selected_tags)

head(selected_tags_over_time, 50)
```

    ## # A tibble: 50 x 5
    ##    year       tag        number year_total fraction
    ##    <date>     <chr>       <dbl>      <dbl>    <dbl>
    ##  1 2008-01-01 matplotlib      4      58390  0.00685
    ##  2 2008-01-01 numpy          12      58390  0.0206 
    ##  3 2009-01-01 ggplot2        33     343868  0.00960
    ##  4 2009-01-01 matplotlib     86     343868  0.0250 
    ##  5 2009-01-01 numpy         159     343868  0.0462 
    ##  6 2010-01-01 ggplot2       245     694391  0.0353 
    ##  7 2010-01-01 matplotlib    331     694391  0.0477 
    ##  8 2010-01-01 numpy         524     694391  0.0755 
    ##  9 2011-01-01 ggplot2       547    1200551  0.0456 
    ## 10 2011-01-01 matplotlib    811    1200551  0.0676 
    ## # ... with 40 more rows
…
Let’s see how often other data analysis programs such as ‘spss’,
‘excel’, ‘sas’, ‘tableau’, ‘sql’ were searched.

``` r
analytisc_tags <- c("r", "python", "spss", 'excel', 'sas', 'tableau', 'sql')

# Filter for those tags
by_tag_subset <- tag_by_year_percentage %>%
  filter(tag %in% analytisc_tags)

by_tag_subset
```

    ## # A tibble: 75 x 5
    ##    year       tag    number year_total fraction
    ##    <date>     <chr>   <dbl>      <dbl>    <dbl>
    ##  1 2008-01-01 excel     399      58390  0.683  
    ##  2 2008-01-01 python   2080      58390  3.56   
    ##  3 2008-01-01 r           8      58390  0.0137 
    ##  4 2008-01-01 sas         5      58390  0.00856
    ##  5 2008-01-01 spss        2      58390  0.00343
    ##  6 2008-01-01 sql      2032      58390  3.48   
    ##  7 2009-01-01 excel    1871     343868  0.544  
    ##  8 2009-01-01 python  12906     343868  3.75   
    ##  9 2009-01-01 r         524     343868  0.152  
    ## 10 2009-01-01 sas       112     343868  0.0326 
    ## # ... with 65 more rows
…
Finally, let’s find out what were the most searched tags on stack
overflow between 2008 and 2018

``` r
sorted_tags <- tag_by_year %>%
  group_by(tag) %>%
  summarize(tag_total = sum(number)) %>%
  arrange(desc(tag_total))

# Print the new table
print(sorted_tags)
```

    ## # A tibble: 4,080 x 2
    ##    tag        tag_total
    ##    <chr>          <dbl>
    ##  1 javascript   1632049
    ##  2 java         1425961
    ##  3 c#           1217450
    ##  4 php          1204291
    ##  5 android      1110261
    ##  6 python        970768
    ##  7 jquery        915159
    ##  8 html          755341
    ##  9 c++           574263
    ## 10 ios           566075
    ## # ... with 4,070 more rows
…
